%!PS-Adobe-3.0 EPSF-3.0
%%Creator: GIMP PostScript file plugin V 1,17 by Peter Kirchgessner
%%Title: logo-LIP.eps
%%CreationDate: Thu Dec  8 12:31:39 2005
%%DocumentData: Clean7Bit
%%LanguageLevel: 2
%%Pages: 1
%%BoundingBox: 14 14 76 101
%%EndComments
%%BeginProlog
% Use own dictionary to avoid conflicts
10 dict begin
%%EndProlog
%%Page: 1 1
% Translate for offset
14.173228346456694 14.173228346456694 translate
% Translate to begin of first scanline
0 86.002220214276505 translate
61.001574803149609 -86.002220214276505 scale
% Image geometry
61 86 8
% Transformation matrix
[ 61 0 0 86 0 0 ]
% Strings to hold RGB-samples per scanline
/rstr 61 string def
/gstr 61 string def
/bstr 61 string def
{currentfile /ASCII85Decode filter /RunLengthDecode filter rstr readstring pop}
{currentfile /ASCII85Decode filter /RunLengthDecode filter gstr readstring pop}
{currentfile /ASCII85Decode filter /RunLengthDecode filter bstr readstring pop}
true 3
%%BeginData:         8710 ASCII Bytes
colorimage
jo5DWgstQ:!nH*$J,~>
jo5DWgstQ:!nH*$J,~>
jo5AZoAoBAoDF+~>
k5PPY^ITp<.fqPDj+%~>
k5PPY^ITp<.fqPDj+%~>
k5PM]l,)Pl!kZbNJ,~>
kPkYZ^Hi1g!<WWp_"`E~>
kPkYZ^Hi1g!<WWp_"`E~>
kPkY_l+a@_W<99<lMZ5~>
kl1b[^Hi.f!!EQn^\IhZ~>
kl1b[^Hi.f!!EQn^\IhZ~>
kl1b`l+a=^WW]E<l2CX4~>
l2Lk\^Hi.f!!NWo^\Ij/J,~>
l2Lk\^Hi.f!!NWo^\Ij/J,~>
l2Lkal+a=^WWfK=l2CY^J,~>
lMgt]^Hi.f!!<Km^\Ig.J,~>
lMgt]^Hi.f!!<Km^\Ig.J,~>
lMgtbl+a=^WWT?;l2CV]J,~>
li.(^^Hi.f!!<Km^\Id-J,~>
li.(^^Hi.f!!<Km^\Id-J,~>
li.(cl+a=^WWT?;l2CS\J,~>
m/I1_^Hi.g!!E</6,33ms*t~>
m/I1_^Hi.g!!E</6,33ms*t~>
m/I1dl+a=_WW]<'^Zk^ps*t~>
mJd:`^Hi.g!!EQR8AFrss*t~>
mJd:`^Hi.g!!EQR8AFrss*t~>
mJd:el+a=_WW]E2_Wh$rs*t~>
mf*Ca^Hi.g!!EQn\_QuVs*t~>
mf*Ca^Hi.g!!EQn\_QuVs*t~>
mf*Cfl+a=_WW]E<kk"`Ks*t~>
n,ELb^Hi.g!!<Km_"[X(J,~>
n,ELb^Hi.g!!<Km_"[X(J,~>
n,ELgl+a=_WWT?;lMUGWJ,~>
nG`Uc^Hi.g!"&ut^[U%/e^W.)q#:;D~>
nG`Uc^Hi.g!"&ut^[U%/e^W.)q#:;D~>
nG`Uhl+a=_WX>iBl1sr?naQ&>r;Q_H~>
nc&^d^Hi.g!"K9#^[T$0/1W5%8AFs"s*t~>
nc&^d^Hi.g!"K9#^[T$0/1W5%8AFs"s*t~>
nc&^il+a=_WWfK=l2'\^rO<!Il2CY^J,~>
o)Age^Hi.g!!W]p^[T!($2jl-#sl?$s*t~>
o)Age^Hi.g!!W]p^[T!($2jl-#sl?$s*t~>
o)Agjl+a=_WWoQ>l2'YZXo54%XhX-!s*t~>
oD\pf^Hi.g!!W]p^[T$)#l=T(#XQ6#J,~>
oD\pf^Hi.g!!W]p^[T$)#l=T(#XQ6#J,~>
oD\pkl+a=_WWoQ>l2'\[XS]""XM=#uJ,~>
o`#$g^Hi.g!!W]p^\?MS$2FQ&#tWj%~>
o`#$g^Hi.g!!W]p^\?MS$2FQ&#tWj%~>
o`#$ll+a=_WWoQ>l2:.iXnesuXhs[[~>
p&>-h^Hi.g!!`cq^\IiZ/-5PH!Wak&J,~>
p&>-h^Hi.g!!`cq^\IiZ/-5PH!Wak&J,~>
p&>-ml+a=_WX#W?l2:SO\>f;(!i`^"J,~>
pAY6i^Hi.g!!iir^\Ij/e11Rq!!30Oe:7~>
pAY6i^Hi.g!!iir^\Ij/e11Rq!!30Oe:7~>
pAY6nl+a=_WX,]@l2:S]n@5InWWK00n:1~>
p\t?j^Hi.g!!<Km^\Ig.!nAh&q#CHs/Cf7~>
p\t?j^Hi.g!!<Km^\Ig.!nAh&q#CHs/Cf7~>
p\t?ol+a=_WWT?;l2CV]!qEe"q5OLq\FG(~>
q#:Hk^Hi.g!!<Km^\Id-!o-<Qq#CI&8DJ^~>
q#:Hk^Hi.g!!<Km^\Id-!o-<Qq#CI&8DJ^~>
q#:Hpl+a=_WWT?;l2CS\!qX:2q5OLu_Xi9~>
q>UQl^Hi.h!!E</6,33mrr`&25m[>f!sh3-pj`~>
q>UQl^Hi.h!!E</6,33mrr`&25m[>f!sh3-pj`~>
q>UQql+a=`WW]<'^Zk^prr`5a^T@=4"0B9%rI=~>
qYpZm^Hi.h!!EQR8AFrrrr`&25mdJj":7B/q#>j~>
qYpZm^Hi.h!!EQR8AFrrrr`&25mdJj":7B/q#>j~>
qYpZrl+a=`WW]E2_Wh$qrr`5a^TII6"KfH'rVqB~>
qu6cn^Hi.h!!EQn\D-fRrsSV:81Z8A/4dPNs8RT~>
qu6cn^Hi.h!!EQn\D-fRrsSV:81Z8A/4dPNs8RT~>
qu6csl+a=`WW]E<kOSQGrrW/`_YptI_Wh%!s*t~>
r;Qlo^Hi.h!!<Km^\IL%#Pd*)eC<%(q#:;D~>
r;Qlo^Hi.h!!<Km^\IL%#Pd*)eC<%(q#:;D~>
r;Qltl+a=`WWT?;l2C;T!W;Qfn,`.Yrr7K~>
rVlup^Hi.h!!<Km^\I'nJ,~>
rVlup^Hi.h!!<Km^\I'nJ,~>
rVluul+a=`WWT?;l2BlHJ,~>
rr3)q^Hi.h!!<Km^\I$mJ,~>
rr3)q^Hi.h!!<Km^\I$mJ,~>
rr3*!l+a=`WWT?;l2BiGJ,~>
s8N2r^Hi.h!!<Km^\I*o!r1gNJ,~>
s8N2r^Hi.h!!<Km^\I*o!r1gNJ,~>
s8N3"l+a=`WWT?;l2BoI!rV`hJ,~>
"TS835mZZS#7*W1q#C-Eeah2pe_Ks"pqU_$J,~>
"TS835mZZS#7*W1q#C-Eeah2pe_Ks"pqU_$J,~>
"TSGb^T?Y!#->T(rVufenF-YRr;Z`\cLZP~>
"8KVs#j;6o#XQ6#s7j?"/Fk:r1i24H^Hj[+J,~>
"8KVs#j;6o#XQ6#s7j?"/Fk:r1i24H^Hj[+J,~>
"9%K!XQZYhXM=#ts8D3!n[Jh9cM%2#^U`lb~>
!o-<QkPtko6,33ppqK*$nc9"&6GW**5m]'kJ,~>
!o-<QkPtko6,33ppqK*$nc9"&6GW**5m]'kJ,~>
!qX:2kc+oi^Zk[rr9:tunu2ns_!:d\^T4m6J,~>
!nAh&kl:tp6,33ppqK*#o)K*u#sl>p^Hi,+/(B(~>
!nAh&kl:tp6,33ppqK*#o)K*u#sl>p^Hi,+/(B(~>
!qEe"l)G#j^Zk[rr9:tto;W.sXhX,rl+a=!\F>"~>
!n8_$l2V(q6,33igUKNTo)K.(,tPi@^Hi,*!@uZM~>
!n8_$l2V(q6,33igUKNTo)K.(,tPi@^Hi,*!@uZM~>
!q<_!lDb,k^Zk^po&mcho;W2"[DM5*l+a="WOVGJ~>
!n8_$lMq1r6,33i^ITXVo)K1)6+G_>^Hi,*!!+V"J,~>
!n8_$lMq1r6,33i^ITXVo)K1)6+G_>^Hi,*!!+V"J,~>
!q<_!l`(5l^Zk^ql,'j0o;W5#^ZY4al+a="Wi<MtJ,~>
!n8_$li7:s6,33i^Hi/,o)K"$6,33h^d/8*!!30Oe:7~>
!n8_$li7:s6,33i^Hi/,o)K"$6,33h^d/8*!!30Oe:7~>
!q<_!m&C>m^Zk^ql+a@"o;W%s^Zk^plG'G"WWK00n:1~>
!n8_$mJmLn#sl?$pqK*#nc/n#6,33i^d/8)!!30Oe:7~>
!n8_$mJmLn#sl?$pqK*#nc/n#6,33i^d/8)!!30Oe:7~>
!q<_!m]$PlXhX-!rTV(unu;qr^Zk^qlG'G!WWK00n:1~>
!n8_$mf3V!,tPfGpqK*#nc/n#6,33i^Hi/'!!30Oe:7~>
!n8_$mf3V!,tPfGpqK*#nc/n#6,33i^Hi/'!!30Oe:7~>
!q<_!n#?Yp[DM2,rTV(unu;qr^Zk^ql+a=tWWK00n:1~>
!n8_$n,N_"6+G\EpqK*#nc/n#6,33i^Hi/&!!30Oe:7~>
!n8_$n,N_"6+G\EpqK*#nc/n#6,33i^Hi/&!!30Oe:7~>
!q<_!n>Zbq^ZY1crTV(unu;qr^Zk^ql+a=sWWK00n:1~>
!n8_$nGih#6,33ppqK*#o)K$s#sl?$pqK*#q>^Qt/(B(~>
!n8_$nGih#6,33ppqK*#o)K$s#sl?$pqK*#q>^Qt/(B(~>
!q<_!nYukr^Zk[rr9:tto;W(qXhX-!rTV(uqPjUr\F>"~>
!n8_$nc/q$6,33ppqK*#o)K%%,tPfGpqK*#q#CHs/(B(~>
!n8_$nc/q$6,33ppqK*#o)K%%,tPfGpqK*#q#CHs/(B(~>
!q<_!nu;ts^Zk[rr9:tto;W(t[DM2,rTV(uq5OLq\F>"~>
!n8_$o)K%%6,33ppqK*#o)K%%6+G\EpqK*#p](?r/(B(~>
!n8_$o)K%%6,33ppqK*#o)K%%6+G\EpqK*#p](?r/(B(~>
!q<_!o;W(t^Zk[rr9:tto;W(t^ZY1crTV(upo4Cp\F>"~>
!n8_$oDf.&6,33igUKNTo)K%%6,33ppqK*#pAb6q/(B(~>
!n8_$oDf.&6,33igUKNTo)K%%6,33ppqK*#pAb6q/(B(~>
!q<_!oVr1u^Zk^po&mcho;W(t^Zk[rr9:ttpSn:o\F>"~>
!n8_$o`,7'6,33i^ITXVo)K%%6,33ppqK*#p&G-p/(B(~>
!n8_$o`,7'6,33i^ITXVo)K%%6,33ppqK*#p&G-p/(B(~>
!q<_!or8;!^Zk^ql,'j0o;W(t^Zk[rr9:ttp8S1n\F>"~>
!n8_$p&G@(6,33i^Hi/,o)K%%6,33ppqK*#o`,$o/(B(~>
!n8_$p&G@(6,33i^Hi/,o)K%%6,33ppqK*#o`,$o/(B(~>
!q<_!p8SD"^Zk^ql+a@"o;W(t^Zk[rr9:ttor8(m\F>"~>
!n8_$pAbF(6,33i^Hi.r!!iir^\Ij(^Hi.t!!30Oe:7~>
!n8_$pAbF(6,33i^Hi.r!!iir^\Ij(^Hi.t!!30Oe:7~>
!q<_!pSnJ"^Zk^ql+a=jWX,]@l2:SZl+a=lWWK00n:1~>
!n8_$p](O)6,33i^Hi.s!!rZ46,33ppqK*#o)Jgm/(B(~>
!n8_$p](O)6,33i^Hi.s!!rZ46,33ppqK*#o)Jgm/(B(~>
!q<_!po4S#^Zk^ql+a=kWX5Z,^Zk[rr9:tto;Vkk\F>"~>
!n8_$q#CX*6,33i^Hi.s!!roW8AFs"pqK*#nc/^l/(B(~>
!n8_$q#CX*6,33i^Hi.s!!roW8AFs"pqK*#nc/^l/(B(~>
!q<_!q5O\$^Zk^ql+a=kWX5c7_Wh!ur9:ttnu;bj\F>"~>
!n8_$q>^a+6,33i^Hi.s!!ros\D-fYpqK*#nGiUk/(B(~>
!n8_$q>^a+6,33i^Hi.s!!ros\D-fYpqK*#nGiUk/(B(~>
!q<_!qPje%^Zk^ql+a=kWX5cAkOSQNrTV(unYuYi\F>"~>
!n8_$qu@!'#slB%pqK*#o)K(&6,33ps7j>p#k.fq!@uZM~>
!n8_$qu@!'#slB%pqK*#o)K(&6,33ps7j>p#k.fq!@uZM~>
!q<_!r2L%%XhX0"rTV(uo;W+u^Zk^ss8D2sXRN4kWOVGJ~>
!n8_$r;[*/,tPiGpqK*#o)K(&6,33ps7j>p#k%`p!@uZM~>
!n8_$r;[*/,tPiGpqK*#o)K(&6,33ps7j>p#k%`p!@uZM~>
!q<_!rMg.)[DM5,rTV(uo;W+u^Zk^ss8D2sXRE.jWOVGJ~>
!n8_$rW!306+G_?gpfWUo)K(&6,33ps7j>p#jqZo!@uZM~>
!n8_$rW!306+G_?gpfWUo)K(&6,33ps7j>p#jqZo!@uZM~>
!q<_!ri-7*^ZY4boB3lio;W+u^Zk^ss8D2sXR<(iWOVGJ~>
%Fcm/!!!9j^\IQ=80nQ5!!ros^\Ij/pqK*#m/R1g/(B(~>
%Fcm/!!!9j^\IQ=80nQ5!!ros^\Ij/pqK*#m/R1g/(B(~>
%Igm,WiE/8l2CPF_R6K:WX5cAl2CY^rTV(umA^5e\F>"~>
%+Hd.!!km*q"VWj#m'Yu$3:H!^\Ij/pqK*#li7(f/(B(~>
%+Hd.!!km*q"VWj#m'Yu$3:H!^\Ij/pqK*#li7(f/(B(~>
%.Ld+WiWu"rVc#rXf:rm$E:/Bl2CY^rTV(um&C,d\F>"~>
$IgR,#XQ6#pqK*#o)K+',tPfGs8Vl/5mZcV!Wah$J,~>
$IgR,#XQ6#pqK*#o)K+',tPfGs8Vl/5mZcV!Wah$J,~>
$LkR)XM=#urTV(uo;W/![DM2,s8W&^^T?b$!i`^!J,~>
$.LI36,33i^Hi.s!"&ut\D-fYs7j>p#jMBk!@uZM~>
$.LI36,33i^Hi.s!"&ut\D-fYs7j>p#jMBk!@uZM~>
$1PI*^Zk^ql+a=kWX>iBkOSQNs8D2sXQleeWOVGJ~>
#h:^s^\IT>64*5a$40#5q#CBhgUKNTo)SLc!Wjq'J,~>
#h:^s^\IT>64*5a$40#5q#CBhgUKNTo)SLc!Wjq'J,~>
#k>I?l2CSG^od4-$E_)-rVuoqo&mcho;_Pa!iid#J,~>
#Ma.2q#BAj2"N4)/4dPNs8Vl/80nQ5!!*?NpaZCs:Y^I~>
#Ma.2q#BAj2"N4)/4dPNs8Vl/80nQ5!!*?NpaZCs:Y^I~>
#P67+rVuQ9]CNH<_Wh%!s8D3![B/u"!N`[&\,jP>J,~>
#Pd?Ss8VlLeaq8se_Ks"s7j>p#m'Vt!XM*%ps]Aqh"ZC~>
#Pd?Ss8VlLeaq8se_Ks"s7j>p#m'Vt!XM*%ps]Aqh"ZC~>
#5n/ls8W#gnaHhUr;Zfql+a@"o;Vkn^ZY@\!V?5>~>
kPkYZ^Hi.r!!<Km^\IL%J,~>
kPkYZ^Hi.r!!<Km^\IL%J,~>
kPkY_l+a=jWWT?;l2C;TJ,~>
kl1b[^Hi.r!!<Km^\II$J,~>
kl1b[^Hi.r!!<Km^\II$J,~>
kl1b`l+a=jWWT?;l2C8SJ,~>
l2Lk\^Hi.r!!<Km^\IF#J,~>
l2Lk\^Hi.r!!<Km^\IF#J,~>
l2Lkal+a=jWWT?;l2C5RJ,~>
lMgt]^Hi.r!!<Km^\IC"J,~>
lMgt]^Hi.r!!<Km^\IC"J,~>
lMgtbl+a=jWWT?;l2C2QJ,~>
li.(^^Hi.r!!<Km^\I@!J,~>
li.(^^Hi.r!!<Km^\I@!J,~>
li.(cl+a=jWWT?;l2C/PJ,~>
m/I1_^Hi.r!!<Km^\I<uJ,~>
m/I1_^Hi.r!!<Km^\I<uJ,~>
m/I1dl+a=jWWT?;l2C,OJ,~>
mJd:`^Hi.r!!<Km^\I9tJ,~>
mJd:`^Hi.r!!<Km^\I9tJ,~>
mJd:el+a=jWWT?;l2C)NJ,~>
mf*Ca^Hi.r!!<Km^\I6sJ,~>
mf*Ca^Hi.r!!<Km^\I6sJ,~>
mf*Cfl+a=jWWT?;l2C&MJ,~>
n,ELb^Hi.r!!<Km^\I3rJ,~>
n,ELb^Hi.r!!<Km^\I3rJ,~>
n,ELgl+a=jWWT?;l2C#LJ,~>
nG`Uc^Hi.r!!<Km^\I0qJ,~>
nG`Uc^Hi.r!!<Km^\I0qJ,~>
nG`Uhl+a=jWWT?;l2BuKJ,~>
nc&^d^Hi.r!!<Km^\I-pJ,~>
nc&^d^Hi.r!!<Km^\I-pJ,~>
nc&^il+a=jWWT?;l2BrJJ,~>
o)Age^Hi.s!!E</6,33[s*t~>
o)Age^Hi.s!!E</6,33[s*t~>
o)Agjl+a=kWW]<'^Zk^^s*t~>
oD\pf^Hi.s!!EQR8AFras*t~>
oD\pf^Hi.s!!EQR8AFras*t~>
oD\pkl+a=kWW]E2_Wh$`s*t~>
o`#$g^Hi.s!!EQn\D-fBs*t~>
o`#$g^Hi.s!!EQn\D-fBs*t~>
o`#$ll+a=kWW]E<kOSQ7s*t~>
p&>-h^Hi.s!!<Km^\HskJ,~>
p&>-h^Hi.s!!<Km^\HskJ,~>
p&>-ml+a=kWWT?;l2BcEJ,~>
pAY6i^Hi.s!!<Km^\HpjJ,~>
pAY6i^Hi.s!!<Km^\HpjJ,~>
pAY6nl+a=kWWT?;l2B`DJ,~>
p\t?j^Hi.s!!<Km^\HmiJ,~>
p\t?j^Hi.s!!<Km^\HmiJ,~>
p\t?ol+a=kWWT?;l2B]CJ,~>
q#:Hk^Hi.s!!<Km^\HjhJ,~>
q#:Hk^Hi.s!!<Km^\HjhJ,~>
q#:Hpl+a=kWWT?;l2BZBJ,~>
q>UQl^Hi.s!!<Km^\HggJ,~>
q>UQl^Hi.s!!<Km^\HggJ,~>
q>UQql+a=kWWT?;l2BWAJ,~>
qYpZm^Hi.s!!<Km^\HdfJ,~>
qYpZm^Hi.s!!<Km^\HdfJ,~>
qYpZrl+a=kWWT?;l2BT@J,~>
qu6cn^Hi.s!!<Km^\HaeJ,~>
qu6cn^Hi.s!!<Km^\HaeJ,~>
qu6csl+a=kWWT?;l2BQ?J,~>
r;Qlo^Hi.s!!<Km^\H^dJ,~>
r;Qlo^Hi.s!!<Km^\H^dJ,~>
r;Qltl+a=kWWT?;l2BN>J,~>
rVlup^Hi.s!!<Km^\H[cJ,~>
rVlup^Hi.s!!<Km^\H[cJ,~>
rVluul+a=kWWT?;l2BK=J,~>
rr3)q^Hi.s!!<Km^\HXbJ,~>
rr3)q^Hi.s!!<Km^\HXbJ,~>
rr3*!l+a=kWWT?;l2BH<J,~>
s8N2r^Hi.s!!<Km^\HUaJ,~>
s8N2r^Hi.s!!<Km^\HUaJ,~>
s8N3"l+a=kWWT?;l2BE;J,~>
"TS835m[&^!sh3-ptPh!~>
"TS835m[&^!sh3-ptPh!~>
"TSGb^T@%,"0B9%rS.@&~>
"8KYu$1e0"#sl?$gAc[~>
"8KYu$1e0"#sl?$gAc[~>
"9%N#Xn/LoXhX-!gAc[~>
!on)Ro.'no8AFrQs*t~>
!on)Ro.'no8AFrQs*t~>
!qjjNo!eb<l2B<8J,~>
!r1R$o@*ilh"]P%J,~>
!r1R$o@*ilh"]P%J,~>
!W;QZn,`.Yf`-I~>
%%EndData
showpage
%%Trailer
end
%%EOF
